X,Y,Width,Height
575,301,62,62
571,292,84,84
593,310,44,44
578,310,53,53
567,299,79,79
565,303,87,87
559,296,98,98
574,321,57,57
571,323,52,52
565,321,57,57
576,325,57,57
568,328,57,57
563,334,44,44
559,318,79,79
564,334,56,56
561,332,57,57
560,334,52,52
564,337,46,46
562,329,62,62
566,335,54,54
562,334,53,53
564,325,70,70
564,325,72,72
562,335,49,49
568,330,65,65
559,337,44,44
558,334,52,52
543,334,49,49
547,332,58,58
535,311,86,86
530,332,57,57
334,55,24,24
519,332,49,49
110,408,44,44
517,329,55,55
511,330,57,57
516,331,57,57
518,329,58,58
519,328,57,57
333,53,26,26
519,329,55,55
525,327,58,58
540,324,67,67
336,55,25,25
334,291,24,24
110,405,44,44
443,329,48,48
537,336,44,44
527,333,60,60
531,342,46,46
535,336,53,53
529,338,50,50
532,316,86,86
540,337,57,57
531,334,56,56
533,335,54,54
533,337,53,53
532,335,50,50
522,332,52,52
533,332,57,57
526,312,86,86
536,324,74,74
531,333,52,52
534,324,78,78
529,332,52,52
531,322,74,74
529,322,74,74
538,331,54,54
333,54,31,31
541,319,74,74
533,329,55,55
537,330,50,50
529,321,67,67
538,327,57,57
550,332,59,59
545,335,44,44
541,333,48,48
554,325,74,74
541,331,46,46
557,333,54,54
549,327,57,57
70,566,29,29
335,291,21,21
333,291,22,22
842,313,63,63
721,337,60,60
843,314,56,56
825,298,83,83
840,300,72,72
837,300,74,74
727,332,47,47
853,307,54,54
724,331,49,49
848,304,60,60
845,307,58,58
732,333,44,44
844,305,62,62
729,329,47,47
844,303,63,63
720,322,62,62
845,303,63,63
728,325,54,54
847,302,61,61
731,329,47,47
845,301,63,63
733,328,46,46
847,302,62,62
735,329,44,44
849,305,59,59
732,328,48,48
847,304,67,67
738,332,44,44
851,307,64,64
853,308,63,63
853,310,66,66
842,291,97,97
860,324,52,52
871,328,49,49
917,368,54,54
912,361,58,58
910,361,74,74
915,361,66,66
915,360,61,61
919,370,44,44
917,368,57,57
913,364,64,64
920,366,57,57
912,362,64,64
891,347,89,89
915,361,61,61
788,393,42,42
915,361,58,58
919,367,54,54
917,367,57,57
920,371,52,52
922,372,52,52
910,354,75,75
913,359,71,71
915,360,70,70
923,368,53,53
801,392,47,47
915,348,74,74
810,380,58,58
916,338,77,77
922,336,69,69
805,361,56,56
924,334,67,67
806,357,58,58
929,339,58,58
808,355,51,51
932,337,61,61
806,348,58,58
928,336,63,63
804,345,66,66
809,350,51,51
925,335,67,67
788,323,98,98
935,336,61,61
808,341,67,67
923,327,84,84
813,342,61,61
945,344,47,47
943,339,58,58
812,341,63,63
936,334,69,69
820,341,60,60
827,342,55,55
944,335,59,59
801,316,105,105
949,334,58,58
832,343,50,50
831,341,48,48
948,330,61,61
800,307,114,114
946,329,62,62
828,336,56,56
948,327,62,62
825,330,66,66
948,326,63,63
833,336,52,52
949,327,62,62
834,335,54,54
948,326,63,63
831,333,59,59
949,327,61,61
838,334,56,56
836,336,53,53
947,328,61,61
950,332,57,57
842,338,52,52
953,341,46,46
947,329,74,74
971,373,71,71
971,369,74,74
980,383,48,48
980,378,54,54
982,382,52,52
978,380,56,56
981,387,49,49
989,392,44,44
966,348,120,120
978,378,67,67
985,380,60,60
988,391,54,54
335,292,20,20
997,391,49,49
994,386,50,50
998,391,44,44
998,391,46,46
877,388,62,62
996,387,52,52
975,375,67,67
332,291,22,22
545,309,53,53
540,302,68,68
543,305,67,67
531,300,71,71
507,305,64,64
494,292,89,89
495,310,49,49
509,310,64,64
